CA4/SystemC/SSC_test.vcd
$date
     May 23, 2024       23:26:00
$end

$version
 SystemC 2.3.3-Accellera --- May 22 2024 22:09:43
$end

$timescale
     1 ps
$end

$scope module SystemC $end
$var wire   32  aaaaa  ns [31:0]  $end
$var wire    8  aaaab  Counter1Value [7:0]  $end
$var wire    8  aaaac  Counter2Value [7:0]  $end
$var wire    8  aaaad  MinAddrRegValue [7:0]  $end
$var wire   16  aaaae  MinRegValue [15:0]  $end
$var wire   16  aaaaf  DataRegValue [15:0]  $end
$var wire    8  aaaag  AddressBus [7:0]  $end
$var wire   16  aaaah  ReadData [15:0]  $end
$var wire   16  aaaai  WriteData [15:0]  $end
$var wire    8  aaaaj  Counter2PI [7:0]  $end
$var wire    1  aaaak  done       $end
$var wire    1  aaaal  start       $end
$var wire    1  aaaam  lt       $end
$var wire    1  aaaan  rwbar       $end
$var wire    1  aaaao  cs       $end
$var wire    1  aaaap  loadDataReg       $end
$var wire    1  aaaaq  loadMinAddrReg       $end
$var wire    1  aaaar  loadMinReg       $end
$var wire    1  aaaas  select_Data       $end
$var wire    2  aaaat  select_Addr [1:0]  $end
$var wire    1  aaaau  initCounter2       $end
$var wire    1  aaaav  enCounter2       $end
$var wire    1  aaaaw  initCounter1       $end
$var wire    1  aaaax  enCounter1       $end
$var wire    1  aaaay  rst       $end
$var wire    1  aaaaz  clk       $end
$upscope $end
$enddefinitions  $end

$comment
All initial values are dumped below at time 0 sec = 0 timescale units.
$end

$dumpvars
b0 aaaaa
bXXXXXXXX aaaab
bXXXXXXXX aaaac
bXXXXXXXX aaaad
bXXXXXXXXXXXXXXXX aaaae
bXXXXXXXXXXXXXXXX aaaaf
bXXXXXXXX aaaag
bXXXXXXXXXXXXXXXX aaaah
bXXXXXXXXXXXXXXXX aaaai
b0 aaaaj
0aaaak
0aaaal
0aaaam
0aaaan
0aaaao
0aaaap
0aaaaq
0aaaar
0aaaas
b0 aaaat
0aaaau
0aaaav
0aaaaw
0aaaax
0aaaay
0aaaaz
$end

#1000
1aaaaz

#2000
0aaaaz

#3000
b0 aaaab
b0 aaaac
b0 aaaad
b0 aaaae
b0 aaaaf
b0 aaaag
b0 aaaai
b1 aaaaj
1aaaay
1aaaaz

#4000
0aaaaz

#5000
1aaaaz

#6000
0aaaay
0aaaaz

#7000
1aaaaz

#8000
0aaaaz

#9000
1aaaaz

#10000
1aaaal
0aaaaz

#11000
1aaaaz

#12000
0aaaaz

#13000
1aaaaz

#14000
0aaaaz

#15000
1aaaaz

#16000
0aaaaz

#17000
1aaaaz

#18000
0aaaaz

#19000
1aaaaz

#20000
0aaaaz

#21000
1aaaaz

#22000
0aaaaz

#23000
0aaaal
1aaaaz

#24000
0aaaaz

#25000
1aaaau
1aaaaw
1aaaaz

#26000
0aaaaz

#27000
b1 aaaac
0aaaaw
1aaaaz

#28000
0aaaaz

#29000
b10001 aaaah
1aaaan
1aaaao
1aaaaq
1aaaar
0aaaau
1aaaaz

#30000
0aaaaz

#31000
b10001 aaaae
b1 aaaag
b11000111 aaaah
b10001 aaaai
1aaaam
1aaaap
0aaaaq
0aaaar
b1 aaaat
1aaaaz

#32000
0aaaaz

#33000
b11000111 aaaaf
b0 aaaag
0aaaam
0aaaan
0aaaao
0aaaap
b0 aaaat
1aaaaz

#34000
0aaaaz

#35000
1aaaaz

#36000
0aaaaz

#37000
1aaaav
1aaaaz

#38000
0aaaaz

#39000
b10 aaaac
b10 aaaag
b1100101 aaaah
1aaaan
1aaaao
1aaaap
b1 aaaat
0aaaav
1aaaaz

#40000
0aaaaz

#41000
b1100101 aaaaf
b0 aaaag
0aaaan
0aaaao
0aaaap
b0 aaaat
1aaaaz

#42000
0aaaaz

#43000
1aaaaz

#44000
0aaaaz

#45000
1aaaav
1aaaaz

#46000
0aaaaz

#47000
b11 aaaac
b11 aaaag
b1110011 aaaah
1aaaan
1aaaao
1aaaap
b1 aaaat
0aaaav
1aaaaz

#48000
0aaaaz

#49000
b1110011 aaaaf
b0 aaaag
0aaaan
0aaaao
0aaaap
b0 aaaat
1aaaaz

#50000
0aaaaz

#51000
1aaaaz

#52000
0aaaaz

#53000
1aaaav
1aaaaz

#54000
0aaaaz

#55000
b100 aaaac
b100 aaaag
b1100000 aaaah
1aaaan
1aaaao
1aaaap
b1 aaaat
0aaaav
1aaaaz

#56000
0aaaaz

#57000
b1100000 aaaaf
b0 aaaag
0aaaan
0aaaao
0aaaap
b0 aaaat
1aaaaz

#58000
0aaaaz

#59000
1aaaaz

#60000
0aaaaz

#61000
1aaaav
1aaaaz

#62000
0aaaaz

#63000
b101 aaaac
b101 aaaag
b10101011 aaaah
1aaaan
1aaaao
1aaaap
b1 aaaat
0aaaav
1aaaaz

#64000
0aaaaz

#65000
b10101011 aaaaf
b0 aaaag
0aaaan
0aaaao
0aaaap
b0 aaaat
1aaaaz

#66000
0aaaaz

#67000
1aaaaz

#68000
0aaaaz

#69000
1aaaav
1aaaaz

#70000
0aaaaz

#71000
b110 aaaac
b110 aaaag
b10001000 aaaah
1aaaan
1aaaao
1aaaap
b1 aaaat
0aaaav
1aaaaz

#72000
0aaaaz

#73000
b10001000 aaaaf
b0 aaaag
0aaaan
0aaaao
0aaaap
b0 aaaat
1aaaaz

#74000
0aaaaz

#75000
1aaaaz

#76000
0aaaaz

#77000
1aaaav
1aaaaz

#78000
0aaaaz

#79000
b111 aaaac
b111 aaaag
b1010001 aaaah
1aaaan
1aaaao
1aaaap
b1 aaaat
0aaaav
1aaaaz

#80000
0aaaaz

#81000
b1010001 aaaaf
b0 aaaag
0aaaan
0aaaao
0aaaap
b0 aaaat
1aaaaz

#82000
0aaaaz

#83000
1aaaaz

#84000
0aaaaz

#85000
1aaaav
1aaaaz

#86000
0aaaaz

#87000
b1000 aaaac
b1000 aaaag
b10111011 aaaah
1aaaan
1aaaao
1aaaap
b1 aaaat
0aaaav
1aaaaz

#88000
0aaaaz

#89000
b10111011 aaaaf
b0 aaaag
0aaaan
0aaaao
0aaaap
b0 aaaat
1aaaaz

#90000
0aaaaz

#91000
1aaaaz

#92000
0aaaaz

#93000
1aaaav
1aaaaz

#94000
0aaaaz

#95000
b1001 aaaac
b1001 aaaag
b1100111 aaaah
1aaaan
1aaaao
1aaaap
b1 aaaat
0aaaav
1aaaaz

#96000
0aaaaz

#97000
b1100111 aaaaf
b0 aaaag
0aaaan
0aaaao
0aaaap
b0 aaaat
1aaaaz

#98000
0aaaaz

#99000
1aaaaz

#100000
0aaaaz

#101000
1aaaav
1aaaaz

#102000
0aaaaz

#103000
b1010 aaaac
b1010 aaaag
b11001001 aaaah
1aaaan
1aaaao
1aaaap
b1 aaaat
0aaaav
1aaaaz

#104000
0aaaaz

#105000
b11001001 aaaaf
b0 aaaag
0aaaan
0aaaao
0aaaap
b0 aaaat
1aaaaz

#106000
0aaaaz

#107000
1aaaaz

#108000
0aaaaz

#109000
1aaaav
1aaaaz

#110000
0aaaaz

#111000
b1011 aaaac
b1011 aaaag
b110111 aaaah
1aaaan
1aaaao
1aaaap
b1 aaaat
0aaaav
1aaaaz

#112000
0aaaaz

#113000
b110111 aaaaf
b0 aaaag
0aaaan
0aaaao
0aaaap
b0 aaaat
1aaaaz

#114000
0aaaaz

#115000
1aaaaz

#116000
0aaaaz

#117000
1aaaav
1aaaaz

#118000
0aaaaz

#119000
b1100 aaaac
b1100 aaaag
b10010101 aaaah
1aaaan
1aaaao
1aaaap
b1 aaaat
0aaaav
1aaaaz

#120000
0aaaaz

#121000
b10010101 aaaaf
b0 aaaag
0aaaan
0aaaao
0aaaap
b0 aaaat
1aaaaz

#122000
0aaaaz

#123000
1aaaaz

#124000
0aaaaz

#125000
1aaaav
1aaaaz

#126000
0aaaaz

#127000
b1101 aaaac
b1101 aaaag
b1111 aaaah
1aaaan
1aaaao
1aaaap
b1 aaaat
0aaaav
1aaaaz

#128000
0aaaaz

#129000
b1111 aaaaf
b0 aaaag
1aaaam
0aaaan
0aaaao
0aaaap
b0 aaaat
1aaaaz

#130000
0aaaaz

#131000
b1101 aaaag
1aaaaq
1aaaar
b1 aaaat
1aaaaz

#132000
0aaaaz

#133000
b1101 aaaad
b1111 aaaae
b0 aaaag
b1111 aaaai
0aaaam
0aaaaq
0aaaar
b0 aaaat
1aaaaz

#134000
0aaaaz

#135000
1aaaav
1aaaaz

#136000
0aaaaz

#137000
b1110 aaaac
b1110 aaaag
b1000100 aaaah
1aaaan
1aaaao
1aaaap
b1 aaaat
0aaaav
1aaaaz

#138000
0aaaaz

#139000
b1000100 aaaaf
b0 aaaag
0aaaan
0aaaao
0aaaap
b0 aaaat
1aaaaz

#140000
0aaaaz

#141000
1aaaaz

#142000
0aaaaz

#143000
1aaaav
1aaaaz

#144000
0aaaaz

#145000
b1111 aaaac
b1111 aaaag
b10101111 aaaah
1aaaan
1aaaao
1aaaap
b1 aaaat
0aaaav
1aaaaz

#146000
0aaaaz

#147000
b10101111 aaaaf
b0 aaaag
0aaaan
0aaaao
0aaaap
b0 aaaat
1aaaaz

#148000
0aaaaz

#149000
1aaaaz

#150000
0aaaaz

#151000
1aaaav
1aaaaz

#152000
0aaaaz

#153000
b10000 aaaac
b10000 aaaag
b11100001 aaaah
1aaaan
1aaaao
1aaaap
b1 aaaat
0aaaav
1aaaaz

#154000
0aaaaz

#155000
b11100001 aaaaf
b0 aaaag
0aaaan
0aaaao
0aaaap
b0 aaaat
1aaaaz

#156000
0aaaaz

#157000
1aaaaz

#158000
0aaaaz

#159000
1aaaav
1aaaaz

#160000
0aaaaz

#161000
b10001 aaaac
b10001 aaaag
b10010 aaaah
1aaaan
1aaaao
1aaaap
b1 aaaat
0aaaav
1aaaaz

#162000
0aaaaz

#163000
b10010 aaaaf
b0 aaaag
0aaaan
0aaaao
0aaaap
b0 aaaat
1aaaaz

#164000
0aaaaz

#165000
1aaaaz

#166000
0aaaaz

#167000
1aaaav
1aaaaz

#168000
0aaaaz

#169000
b10010 aaaac
b10010 aaaag
b101100 aaaah
1aaaan
1aaaao
1aaaap
b1 aaaat
0aaaav
1aaaaz

#170000
0aaaaz

#171000
b101100 aaaaf
b0 aaaag
0aaaan
0aaaao
0aaaap
b0 aaaat
1aaaaz

#172000
0aaaaz

#173000
1aaaaz

#174000
0aaaaz

#175000
1aaaav
1aaaaz

#176000
0aaaaz

#177000
b10011 aaaac
b10011 aaaag
b10010000 aaaah
1aaaan
1aaaao
1aaaap
b1 aaaat
0aaaav
1aaaaz

#178000
0aaaaz

#179000
b10010000 aaaaf
b0 aaaag
0aaaan
0aaaao
0aaaap
b0 aaaat
1aaaaz

#180000
0aaaaz

#181000
1aaaaz

#182000
0aaaaz

#183000
1aaaav
1aaaaz

#184000
0aaaaz

#185000
b10100 aaaac
b10100 aaaag
b11000101 aaaah
1aaaan
1aaaao
1aaaap
b1 aaaat
0aaaav
1aaaaz

#186000
0aaaaz

#187000
b11000101 aaaaf
b0 aaaag
0aaaan
0aaaao
0aaaap
b0 aaaat
1aaaaz

#188000
0aaaaz

#189000
1aaaaz

#190000
0aaaaz

#191000
1aaaav
1aaaaz

#192000
0aaaaz

#193000
b10101 aaaac
b10101 aaaag
b10001001 aaaah
1aaaan
1aaaao
1aaaap
b1 aaaat
0aaaav
1aaaaz

#194000
0aaaaz

#195000
b10001001 aaaaf
b0 aaaag
0aaaan
0aaaao
0aaaap
b0 aaaat
1aaaaz

#196000
0aaaaz

#197000
1aaaaz

#198000
0aaaaz

#199000
1aaaav
1aaaaz

#200000
0aaaaz

#201000
b10110 aaaac
b10110 aaaag
b10101001 aaaah
1aaaan
1aaaao
1aaaap
b1 aaaat
0aaaav
1aaaaz

#202000
0aaaaz

#203000
b10101001 aaaaf
b0 aaaag
0aaaan
0aaaao
0aaaap
b0 aaaat
1aaaaz

#204000
0aaaaz

#205000
1aaaaz

#206000
0aaaaz

#207000
1aaaav
1aaaaz

#208000
0aaaaz

#209000
b10111 aaaac
b10111 aaaag
b10010100 aaaah
1aaaan
1aaaao
1aaaap
b1 aaaat
0aaaav
1aaaaz

#210000
0aaaaz

#211000
b10010100 aaaaf
b0 aaaag
0aaaan
0aaaao
0aaaap
b0 aaaat
1aaaaz

#212000
0aaaaz

#213000
1aaaaz

#214000
0aaaaz

#215000
1aaaav
1aaaaz

#216000
0aaaaz

#217000
b11000 aaaac
b11000 aaaag
b1010110 aaaah
1aaaan
1aaaao
1aaaap
b1 aaaat
0aaaav
1aaaaz

#218000
0aaaaz

#219000
b1010110 aaaaf
b0 aaaag
0aaaan
0aaaao
0aaaap
b0 aaaat
1aaaaz

#220000
0aaaaz

#221000
1aaaaz

#222000
0aaaaz

#223000
1aaaav
1aaaaz

#224000
0aaaaz

#225000
b11001 aaaac
b11001 aaaag
b11110100 aaaah
1aaaan
1aaaao
1aaaap
b1 aaaat
0aaaav
1aaaaz

#226000
0aaaaz

#227000
b11110100 aaaaf
b0 aaaag
0aaaan
0aaaao
0aaaap
b0 aaaat
1aaaaz

#228000
0aaaaz

#229000
1aaaaz

#230000
0aaaaz

#231000
1aaaav
1aaaaz

#232000
0aaaaz

#233000
b11010 aaaac
b11010 aaaag
b10011111 aaaah
1aaaan
1aaaao
1aaaap
b1 aaaat
0aaaav
1aaaaz

#234000
0aaaaz

#235000
b10011111 aaaaf
b0 aaaag
0aaaan
0aaaao
0aaaap
b0 aaaat
1aaaaz

#236000
0aaaaz

#237000
1aaaaz

#238000
0aaaaz

#239000
1aaaav
1aaaaz

#240000
0aaaaz

#241000
b11011 aaaac
b11011 aaaag
b11111011 aaaah
1aaaan
1aaaao
1aaaap
b1 aaaat
0aaaav
1aaaaz

#242000
0aaaaz

#243000
b11111011 aaaaf
b0 aaaag
0aaaan
0aaaao
0aaaap
b0 aaaat
1aaaaz

#244000
0aaaaz

#245000
1aaaaz

#246000
0aaaaz

#247000
1aaaav
1aaaaz

#248000
0aaaaz

#249000
b11100 aaaac
b11100 aaaag
b11110110 aaaah
1aaaan
1aaaao
1aaaap
b1 aaaat
0aaaav
1aaaaz

#250000
0aaaaz

#251000
b11110110 aaaaf
b0 aaaag
0aaaan
0aaaao
0aaaap
b0 aaaat
1aaaaz

#252000
0aaaaz

#253000
1aaaaz

#254000
0aaaaz

#255000
1aaaav
1aaaaz

#256000
0aaaaz

#257000
b11101 aaaac
b11101 aaaag
b11110001 aaaah
1aaaan
1aaaao
1aaaap
b1 aaaat
0aaaav
1aaaaz

#258000
0aaaaz

#259000
b11110001 aaaaf
b0 aaaag
0aaaan
0aaaao
0aaaap
b0 aaaat
1aaaaz

#260000
0aaaaz

#261000
1aaaaz

#262000
0aaaaz

#263000
1aaaav
1aaaaz

#264000
0aaaaz

#265000
b11110 aaaac
b11110 aaaag
b10010010 aaaah
1aaaan
1aaaao
1aaaap
b1 aaaat
0aaaav
1aaaaz

#266000
0aaaaz

#267000
b10010010 aaaaf
b0 aaaag
0aaaan
0aaaao
0aaaap
b0 aaaat
1aaaaz

#268000
0aaaaz

#269000
1aaaaz

#270000
0aaaaz

#271000
1aaaav
1aaaaz

#272000
0aaaaz

#273000
b11111 aaaac
b11111 aaaag
b11111 aaaah
1aaaan
1aaaao
1aaaap
b1 aaaat
0aaaav
1aaaaz

#274000
0aaaaz

#275000
b11111 aaaaf
b0 aaaag
0aaaan
0aaaao
0aaaap
b0 aaaat
1aaaaz

#276000
0aaaaz

#277000
1aaaaz

#278000
0aaaaz

#279000
1aaaav
1aaaaz

#280000
0aaaaz

#281000
b100000 aaaac
b100000 aaaag
b101 aaaah
1aaaan
1aaaao
1aaaap
b1 aaaat
0aaaav
1aaaaz

#282000
0aaaaz

#283000
b101 aaaaf
b0 aaaag
1aaaam
0aaaan
0aaaao
0aaaap
b0 aaaat
1aaaaz

#284000
0aaaaz

#285000
b100000 aaaag
1aaaaq
1aaaar
b1 aaaat
1aaaaz

#286000
0aaaaz

#287000
b100000 aaaad
b101 aaaae
b0 aaaag
b101 aaaai
0aaaam
0aaaaq
0aaaar
b0 aaaat
1aaaaz

#288000
0aaaaz

#289000
1aaaav
1aaaaz

#290000
0aaaaz

#291000
b100001 aaaac
b100001 aaaag
b11110000 aaaah
1aaaan
1aaaao
1aaaap
b1 aaaat
0aaaav
1aaaaz

#292000
0aaaaz

#293000
b11110000 aaaaf
b0 aaaag
0aaaan
0aaaao
0aaaap
b0 aaaat
1aaaaz

#294000
0aaaaz

#295000
1aaaaz

#296000
0aaaaz

#297000
1aaaav
1aaaaz

#298000
0aaaaz

#299000
b100010 aaaac
b100010 aaaag
b1110111 aaaah
1aaaan
1aaaao
1aaaap
b1 aaaat
0aaaav
1aaaaz

#300000
0aaaaz

#301000
b1110111 aaaaf
b0 aaaag
0aaaan
0aaaao
0aaaap
b0 aaaat
1aaaaz

#302000
0aaaaz

#303000
1aaaaz

#304000
0aaaaz

#305000
1aaaav
1aaaaz

#306000
0aaaaz

#307000
b100011 aaaac
b100011 aaaag
b1100010 aaaah
1aaaan
1aaaao
1aaaap
b1 aaaat
0aaaav
1aaaaz

#308000
0aaaaz

#309000
b1100010 aaaaf
b0 aaaag
0aaaan
0aaaao
0aaaap
b0 aaaat
1aaaaz

#310000
0aaaaz

#311000
1aaaaz

#312000
0aaaaz

#313000
1aaaav
1aaaaz

#314000
0aaaaz

#315000
b100100 aaaac
b100100 aaaag
b110100 aaaah
1aaaan
1aaaao
1aaaap
b1 aaaat
0aaaav
1aaaaz

#316000
0aaaaz

#317000
b110100 aaaaf
b0 aaaag
0aaaan
0aaaao
0aaaap
b0 aaaat
1aaaaz

#318000
0aaaaz

#319000
1aaaaz

#320000
0aaaaz

#321000
1aaaav
1aaaaz

#322000
0aaaaz

#323000
b100101 aaaac
b100101 aaaag
b10111111 aaaah
1aaaan
1aaaao
1aaaap
b1 aaaat
0aaaav
1aaaaz

#324000
0aaaaz

#325000
b10111111 aaaaf
b0 aaaag
0aaaan
0aaaao
0aaaap
b0 aaaat
1aaaaz

#326000
0aaaaz

#327000
1aaaaz

#328000
0aaaaz

#329000
1aaaav
1aaaaz

#330000
0aaaaz

#331000
b100110 aaaac
b100110 aaaag
b1100011 aaaah
1aaaan
1aaaao
1aaaap
b1 aaaat
0aaaav
1aaaaz

#332000
0aaaaz

#333000
b1100011 aaaaf
b0 aaaag
0aaaan
0aaaao
0aaaap
b0 aaaat
1aaaaz

#334000
0aaaaz

#335000
1aaaaz

#336000
0aaaaz

#337000
1aaaav
1aaaaz

#338000
0aaaaz

#339000
b100111 aaaac
b100111 aaaag
b100111 aaaah
1aaaan
1aaaao
1aaaap
b1 aaaat
0aaaav
1aaaaz

#340000
0aaaaz

#341000
b100111 aaaaf
b0 aaaag
0aaaan
0aaaao
0aaaap
b0 aaaat
1aaaaz

#342000
0aaaaz

#343000
1aaaaz

#344000
0aaaaz

#345000
1aaaav
1aaaaz

#346000
0aaaaz

#347000
b101000 aaaac
b101000 aaaag
b10110111 aaaah
1aaaan
1aaaao
1aaaap
b1 aaaat
0aaaav
1aaaaz

#348000
0aaaaz

#349000
b10110111 aaaaf
b0 aaaag
0aaaan
0aaaao
0aaaap
b0 aaaat
1aaaaz

#350000
0aaaaz

#351000
1aaaaz

#352000
0aaaaz

#353000
1aaaav
1aaaaz

#354000
0aaaaz

#355000
b101001 aaaac
b101001 aaaag
b10100010 aaaah
1aaaan
1aaaao
1aaaap
b1 aaaat
0aaaav
1aaaaz

#356000
0aaaaz

#357000
b10100010 aaaaf
b0 aaaag
0aaaan
0aaaao
0aaaap
b0 aaaat
1aaaaz

#358000
0aaaaz

#359000
1aaaaz

#360000
0aaaaz

#361000
1aaaav
1aaaaz

#362000
0aaaaz

#363000
b101010 aaaac
b101010 aaaag
b1101110 aaaah
1aaaan
1aaaao
1aaaap
b1 aaaat
0aaaav
1aaaaz

#364000
0aaaaz

#365000
b1101110 aaaaf
b0 aaaag
0aaaan
0aaaao
0aaaap
b0 aaaat
1aaaaz

#366000
0aaaaz

#367000
1aaaaz

#368000
0aaaaz

#369000
1aaaav
1aaaaz

#370000
0aaaaz

#371000
b101011 aaaac
b101011 aaaag
b110 aaaah
1aaaan
1aaaao
1aaaap
b1 aaaat
0aaaav
1aaaaz

#372000
0aaaaz

#373000
b110 aaaaf
b0 aaaag
0aaaan
0aaaao
0aaaap
b0 aaaat
1aaaaz

#374000
0aaaaz

#375000
1aaaaz

#376000
0aaaaz

#377000
1aaaav
1aaaaz

#378000
0aaaaz

#379000
b101100 aaaac
b101100 aaaag
b10001111 aaaah
1aaaan
1aaaao
1aaaap
b1 aaaat
0aaaav
1aaaaz

#380000
0aaaaz

#381000
b10001111 aaaaf
b0 aaaag
0aaaan
0aaaao
0aaaap
b0 aaaat
1aaaaz

#382000
0aaaaz

#383000
1aaaaz

#384000
0aaaaz

#385000
1aaaav
1aaaaz

#386000
0aaaaz

#387000
b101101 aaaac
b101101 aaaag
b1101101 aaaah
1aaaan
1aaaao
1aaaap
b1 aaaat
0aaaav
1aaaaz

#388000
0aaaaz

#389000
b1101101 aaaaf
b0 aaaag
0aaaan
0aaaao
0aaaap
b0 aaaat
1aaaaz

#390000
0aaaaz

#391000
1aaaaz

#392000
0aaaaz

#393000
1aaaav
1aaaaz

#394000
0aaaaz

#395000
b101110 aaaac
b101110 aaaag
b10111010 aaaah
1aaaan
1aaaao
1aaaap
b1 aaaat
0aaaav
1aaaaz

#396000
0aaaaz

#397000
b10111010 aaaaf
b0 aaaag
0aaaan
0aaaao
0aaaap
b0 aaaat
1aaaaz

#398000
0aaaaz

#399000
1aaaaz

#400000
0aaaaz

#401000
1aaaav
1aaaaz

#402000
0aaaaz

#403000
b101111 aaaac
b101111 aaaag
b1011001 aaaah
1aaaan
1aaaao
1aaaap
b1 aaaat
0aaaav
1aaaaz

#404000
0aaaaz

#405000
b1011001 aaaaf
b0 aaaag
0aaaan
0aaaao
0aaaap
b0 aaaat
1aaaaz

#406000
0aaaaz

#407000
1aaaaz

#408000
0aaaaz

#409000
1aaaav
1aaaaz

#410000
0aaaaz

#411000
b110000 aaaac
b110000 aaaag
b1101111 aaaah
1aaaan
1aaaao
1aaaap
b1 aaaat
0aaaav
1aaaaz

#412000
0aaaaz

#413000
b1101111 aaaaf
b0 aaaag
0aaaan
0aaaao
0aaaap
b0 aaaat
1aaaaz

#414000
0aaaaz

#415000
1aaaaz

#416000
0aaaaz

#417000
1aaaav
1aaaaz

#418000
0aaaaz

#419000
b110001 aaaac
b110001 aaaag
b10011100 aaaah
1aaaan
1aaaao
1aaaap
b1 aaaat
0aaaav
1aaaaz

#420000
0aaaaz

#421000
b10011100 aaaaf
b0 aaaag
0aaaan
0aaaao
0aaaap
b0 aaaat
1aaaaz

#422000
0aaaaz

#423000
1aaaaz

#424000
0aaaaz

#425000
1aaaav
1aaaaz

#426000
0aaaaz

#427000
b110010 aaaac
b110010 aaaag
b10100110 aaaah
1aaaan
1aaaao
1aaaap
b1 aaaat
0aaaav
1aaaaz

#428000
0aaaaz

#429000
b10100110 aaaaf
b0 aaaag
0aaaan
0aaaao
0aaaap
b0 aaaat
1aaaaz

#430000
0aaaaz

#431000
1aaaaz

#432000
0aaaaz

#433000
1aaaav
1aaaaz

#434000
0aaaaz

#435000
b110011 aaaac
b110011 aaaag
b11010110 aaaah
1aaaan
1aaaao
1aaaap
b1 aaaat
0aaaav
1aaaaz

#436000
0aaaaz

#437000
b11010110 aaaaf
b0 aaaag
0aaaan
0aaaao
0aaaap
b0 aaaat
1aaaaz

#438000
0aaaaz

#439000
1aaaaz

#440000
0aaaaz

#441000
1aaaav
1aaaaz

#442000
0aaaaz

#443000
b110100 aaaac
b110100 aaaag
b11100000 aaaah
1aaaan
1aaaao
1aaaap
b1 aaaat
0aaaav
1aaaaz

#444000
0aaaaz

#445000
b11100000 aaaaf
b0 aaaag
0aaaan
0aaaao
0aaaap
b0 aaaat
1aaaaz

#446000
0aaaaz

#447000
1aaaaz

#448000
0aaaaz

#449000
1aaaav
1aaaaz

#450000
0aaaaz

#451000
b110101 aaaac
b110101 aaaag
b11100101 aaaah
1aaaan
1aaaao
1aaaap
b1 aaaat
0aaaav
1aaaaz

#452000
0aaaaz

#453000
b11100101 aaaaf
b0 aaaag
0aaaan
0aaaao
0aaaap
b0 aaaat
1aaaaz

#454000
0aaaaz

#455000
1aaaaz

#456000
0aaaaz

#457000
1aaaav
1aaaaz

#458000
0aaaaz

#459000
b110110 aaaac
b110110 aaaag
b11111100 aaaah
1aaaan
1aaaao
1aaaap
b1 aaaat
0aaaav
1aaaaz

#460000
0aaaaz

#461000
b11111100 aaaaf
b0 aaaag
0aaaan
0aaaao
0aaaap
b0 aaaat
1aaaaz

#462000
0aaaaz

#463000
1aaaaz

#464000
0aaaaz

#465000
1aaaav
1aaaaz

#466000
0aaaaz

#467000
b110111 aaaac
b110111 aaaag
b1000 aaaah
1aaaan
1aaaao
1aaaap
b1 aaaat
0aaaav
1aaaaz

#468000
0aaaaz

#469000
b1000 aaaaf
b0 aaaag
0aaaan
0aaaao
0aaaap
b0 aaaat
1aaaaz

#470000
0aaaaz

#471000
1aaaaz

#472000
0aaaaz

#473000
1aaaav
1aaaaz

#474000
0aaaaz

#475000
b111000 aaaac
b111000 aaaag
b1001101 aaaah
1aaaan
1aaaao
1aaaap
b1 aaaat
0aaaav
1aaaaz

#476000
0aaaaz

#477000
b1001101 aaaaf
b0 aaaag
0aaaan
0aaaao
0aaaap
b0 aaaat
1aaaaz

#478000
0aaaaz

#479000
1aaaaz

#480000
0aaaaz

#481000
1aaaav
1aaaaz

#482000
0aaaaz

#483000
b111001 aaaac
b111001 aaaag
b100110 aaaah
1aaaan
1aaaao
1aaaap
b1 aaaat
0aaaav
1aaaaz

#484000
0aaaaz

#485000
b100110 aaaaf
b0 aaaag
0aaaan
0aaaao
0aaaap
b0 aaaat
1aaaaz

#486000
0aaaaz

#487000
1aaaaz

#488000
0aaaaz

#489000
1aaaav
1aaaaz

#490000
0aaaaz

#491000
b111010 aaaac
b111010 aaaag
b1111110 aaaah
1aaaan
1aaaao
1aaaap
b1 aaaat
0aaaav
1aaaaz

#492000
0aaaaz

#493000
b1111110 aaaaf
b0 aaaag
0aaaan
0aaaao
0aaaap
b0 aaaat
1aaaaz

#494000
0aaaaz

#495000
1aaaaz

#496000
0aaaaz

#497000
1aaaav
1aaaaz

#498000
0aaaaz

#499000
b111011 aaaac
b111011 aaaag
b110000 aaaah
1aaaan
1aaaao
1aaaap
b1 aaaat
0aaaav
1aaaaz

#500000
0aaaaz

#501000
b110000 aaaaf
b0 aaaag
0aaaan
0aaaao
0aaaap
b0 aaaat
1aaaaz

#502000
0aaaaz

#503000
1aaaaz

#504000
0aaaaz

#505000
1aaaav
1aaaaz

#506000
0aaaaz

#507000
b111100 aaaac
b111100 aaaag
b11011001 aaaah
1aaaan
1aaaao
1aaaap
b1 aaaat
0aaaav
1aaaaz

#508000
0aaaaz

#509000
b11011001 aaaaf
b0 aaaag
0aaaan
0aaaao
0aaaap
b0 aaaat
1aaaaz

#510000
0aaaaz

#511000
1aaaaz

#512000
0aaaaz

#513000
1aaaav
1aaaaz

#514000
0aaaaz

#515000
b111101 aaaac
b111101 aaaag
b101011 aaaah
1aaaan
1aaaao
1aaaap
b1 aaaat
0aaaav
1aaaaz

#516000
0aaaaz

#517000
b101011 aaaaf
b0 aaaag
0aaaan
0aaaao
0aaaap
b0 aaaat
1aaaaz

#518000
0aaaaz

#519000
1aaaaz

#520000
0aaaaz

#521000
1aaaav
1aaaaz

#522000
0aaaaz

#523000
b111110 aaaac
b111110 aaaag
b10111101 aaaah
1aaaan
1aaaao
1aaaap
b1 aaaat
0aaaav
1aaaaz

#524000
0aaaaz

#525000
b10111101 aaaaf
b0 aaaag
0aaaan
0aaaao
0aaaap
b0 aaaat
1aaaaz

#526000
0aaaaz

#527000
1aaaaz

#528000
0aaaaz

#529000
1aaaav
1aaaaz

#530000
0aaaaz

#531000
b111111 aaaac
b111111 aaaag
b111010 aaaah
1aaaan
1aaaao
1aaaap
b1 aaaat
0aaaav
1aaaaz

#532000
0aaaaz

#533000
b111010 aaaaf
b0 aaaag
0aaaan
0aaaao
0aaaap
b0 aaaat
1aaaaz

#534000
0aaaaz

#535000
1aaaaz

#536000
0aaaaz

#537000
1aaaav
1aaaaz

#538000
0aaaaz

#539000
b1000000 aaaac
b1000000 aaaag
b10100 aaaah
1aaaan
1aaaao
1aaaap
b1 aaaat
0aaaav
1aaaaz

#540000
0aaaaz

#541000
b10100 aaaaf
b0 aaaag
0aaaan
0aaaao
0aaaap
b0 aaaat
1aaaaz

#542000
0aaaaz

#543000
1aaaaz

#544000
0aaaaz

#545000
1aaaav
1aaaaz

#546000
0aaaaz

#547000
b1000001 aaaac
b1000001 aaaag
b11001111 aaaah
1aaaan
1aaaao
1aaaap
b1 aaaat
0aaaav
1aaaaz

#548000
0aaaaz

#549000
b11001111 aaaaf
b0 aaaag
0aaaan
0aaaao
0aaaap
b0 aaaat
1aaaaz

#550000
0aaaaz

#551000
1aaaaz

#552000
0aaaaz

#553000
1aaaav
1aaaaz

#554000
0aaaaz

#555000
b1000010 aaaac
b1000010 aaaag
b10101000 aaaah
1aaaan
1aaaao
1aaaap
b1 aaaat
0aaaav
1aaaaz

#556000
0aaaaz

#557000
b10101000 aaaaf
b0 aaaag
0aaaan
0aaaao
0aaaap
b0 aaaat
1aaaaz

#558000
0aaaaz

#559000
1aaaaz

#560000
0aaaaz

#561000
1aaaav
1aaaaz

#562000
0aaaaz

#563000
b1000011 aaaac
b1000011 aaaag
b11100011 aaaah
1aaaan
1aaaao
1aaaap
b1 aaaat
0aaaav
1aaaaz

#564000
0aaaaz

#565000
b11100011 aaaaf
b0 aaaag
0aaaan
0aaaao
0aaaap
b0 aaaat
1aaaaz

